xof 0303txt 0032


template VertexDuplicationIndices { 
 <b8d65549-d7c9-4995-89cf-53a9a8b031e3>
 DWORD nIndices;
 DWORD nOriginalVertices;
 array DWORD indices[nIndices];
}
template XSkinMeshHeader {
 <3cf169ce-ff7c-44ab-93c0-f78f62d172e2>
 WORD nMaxSkinWeightsPerVertex;
 WORD nMaxSkinWeightsPerFace;
 WORD nBones;
}
template SkinWeights {
 <6f0d123b-bad2-4167-a0d0-80224f25fabb>
 STRING transformNodeName;
 DWORD nWeights;
 array DWORD vertexIndices[nWeights];
 array float weights[nWeights];
 Matrix4x4 matrixOffset;
}

Frame RootFrame {

  FrameTransformMatrix {
    1.000000,0.000000,0.000000,0.000000,
    0.000000,1.000000,0.000000,0.000000,
    0.000000,0.000000,-1.000000,0.000000,
    0.000000,0.000000,0.000000,1.000000;;
  }
  Frame Cone {

    FrameTransformMatrix {
      1.000000,0.000000,0.000000,0.000000,
      0.000000,-1.000000,-0.004400,0.000000,
      0.000000,0.004400,-1.000000,0.000000,
      0.000000,0.000000,0.000000,1.000000;;
    }
Mesh {
48;
1.000000; -0.000000; -1.000000;,
0.707100; 0.707100; -1.000000;,
0.000000; 0.000000; 1.000000;,
0.000000; 0.000000; 1.000000;,
0.707100; -0.707100; -1.000000;,
1.000000; -0.000000; -1.000000;,
0.000000; 0.000000; 1.000000;,
-0.000000; -1.000000; -1.000000;,
0.707100; -0.707100; -1.000000;,
0.000000; 0.000000; 1.000000;,
-0.707100; -0.707100; -1.000000;,
-0.000000; -1.000000; -1.000000;,
0.000000; 0.000000; 1.000000;,
-1.000000; 0.000000; -1.000000;,
-0.707100; -0.707100; -1.000000;,
0.000000; 0.000000; 1.000000;,
-0.707100; 0.707100; -1.000000;,
-1.000000; 0.000000; -1.000000;,
0.000000; 0.000000; 1.000000;,
-0.000000; 1.000000; -1.000000;,
-0.707100; 0.707100; -1.000000;,
0.000000; 0.000000; 1.000000;,
0.707100; 0.707100; -1.000000;,
-0.000000; 1.000000; -1.000000;,
0.000000; 0.000000; -1.000000;,
0.707100; 0.707100; -1.000000;,
1.000000; -0.000000; -1.000000;,
0.000000; 0.000000; -1.000000;,
1.000000; -0.000000; -1.000000;,
0.707100; -0.707100; -1.000000;,
0.000000; 0.000000; -1.000000;,
0.707100; -0.707100; -1.000000;,
-0.000000; -1.000000; -1.000000;,
0.000000; 0.000000; -1.000000;,
-0.000000; -1.000000; -1.000000;,
-0.707100; -0.707100; -1.000000;,
0.000000; 0.000000; -1.000000;,
-0.707100; -0.707100; -1.000000;,
-1.000000; 0.000000; -1.000000;,
0.000000; 0.000000; -1.000000;,
-1.000000; 0.000000; -1.000000;,
-0.707100; 0.707100; -1.000000;,
0.000000; 0.000000; -1.000000;,
-0.707100; 0.707100; -1.000000;,
-0.000000; 1.000000; -1.000000;,
-0.000000; 1.000000; -1.000000;,
0.707100; 0.707100; -1.000000;,
0.000000; 0.000000; -1.000000;;
16;
3; 0, 2, 1;,
3; 3, 5, 4;,
3; 6, 8, 7;,
3; 9, 11, 10;,
3; 12, 14, 13;,
3; 15, 17, 16;,
3; 18, 20, 19;,
3; 21, 23, 22;,
3; 24, 26, 25;,
3; 27, 29, 28;,
3; 30, 32, 31;,
3; 33, 35, 34;,
3; 36, 38, 37;,
3; 39, 41, 40;,
3; 42, 44, 43;,
3; 45, 47, 46;;
  MeshMaterialList {
    1;
    16;
    0,
    0,
    0,
    0,
    0,
    0,
    0,
    0,
    0,
    0,
    0,
    0,
    0,
    0,
    0,
    0;;
  Material Material_001 {
    0.775160; 0.945688; 0.122319;1.0;;
    0.500000;
    1.000000; 1.000000; 1.000000;;
    0.0; 0.0; 0.0;;
  }  //End of Material
    }  //End of MeshMaterialList
  MeshNormals {
48;
    0.822169; 0.000000; -0.569201;,
    0.581378; 0.581378; -0.569201;,
    0.000000; 0.000000; 1.000000;,
    0.000000; 0.000000; 1.000000;,
    0.581378; -0.581378; -0.569201;,
    0.822169; 0.000000; -0.569201;,
    0.000000; 0.000000; 1.000000;,
    0.000000; -0.822169; -0.569201;,
    0.581378; -0.581378; -0.569201;,
    0.000000; 0.000000; 1.000000;,
    -0.581378; -0.581378; -0.569201;,
    0.000000; -0.822169; -0.569201;,
    0.000000; 0.000000; 1.000000;,
    -0.822169; 0.000000; -0.569201;,
    -0.581378; -0.581378; -0.569201;,
    0.000000; 0.000000; 1.000000;,
    -0.581378; 0.581378; -0.569201;,
    -0.822169; 0.000000; -0.569201;,
    0.000000; 0.000000; 1.000000;,
    0.000000; 0.822169; -0.569201;,
    -0.581378; 0.581378; -0.569201;,
    0.000000; 0.000000; 1.000000;,
    0.581378; 0.581378; -0.569201;,
    0.000000; 0.822169; -0.569201;,
    0.000000; 0.000000; -1.000000;,
    0.581378; 0.581378; -0.569201;,
    0.822169; 0.000000; -0.569201;,
    0.000000; 0.000000; -1.000000;,
    0.822169; 0.000000; -0.569201;,
    0.581378; -0.581378; -0.569201;,
    0.000000; 0.000000; -1.000000;,
    0.581378; -0.581378; -0.569201;,
    0.000000; -0.822169; -0.569201;,
    0.000000; 0.000000; -1.000000;,
    0.000000; -0.822169; -0.569201;,
    -0.581378; -0.581378; -0.569201;,
    0.000000; 0.000000; -1.000000;,
    -0.581378; -0.581378; -0.569201;,
    -0.822169; 0.000000; -0.569201;,
    0.000000; 0.000000; -1.000000;,
    -0.822169; 0.000000; -0.569201;,
    -0.581378; 0.581378; -0.569201;,
    0.000000; 0.000000; -1.000000;,
    -0.581378; 0.581378; -0.569201;,
    0.000000; 0.822169; -0.569201;,
    0.000000; 0.822169; -0.569201;,
    0.581378; 0.581378; -0.569201;,
    0.000000; 0.000000; -1.000000;;
16;
3; 0, 2, 1;,
3; 3, 5, 4;,
3; 6, 8, 7;,
3; 9, 11, 10;,
3; 12, 14, 13;,
3; 15, 17, 16;,
3; 18, 20, 19;,
3; 21, 23, 22;,
3; 24, 26, 25;,
3; 27, 29, 28;,
3; 30, 32, 31;,
3; 33, 35, 34;,
3; 36, 38, 37;,
3; 39, 41, 40;,
3; 42, 44, 43;,
3; 45, 47, 46;;
}  //End of MeshNormals
  }  // End of the Mesh Cone 
  }  // SI End of the Object Cone 
}  // End of the Root Frame
